{
  "$schema": "node_modules/nx/schemas/project-schema.json",
  "name": "Hausubung_2",
  "projectType": "application",
  "generators": {
    "@schematics/angular:component": {
      "style": "scss"
    }
  },
  "sourceRoot": "src",
  "prefix": "app",
  "targets": {
    "build": {
      "executor": "@angular-devkit/build-angular:browser",
      "options": {
        "outputPath": "public",
        "index": "src/index.html",
        "main": "src/main.ts",
        "polyfills": ["zone.js"],
        "tsConfig": "tsconfig.app.json",
        "inlineStyleLanguage": "scss",
        "assets": ["src/favicon.ico", "src/assets", "src/manifest.webmanifest"],
        "styles": ["src/styles.scss"],
        "scripts": [],
        "serviceWorker": true,
        "ngswConfigPath": "ngsw-config.json"
      },
      "configurations": {
        "production": {
          "budgets": [
            {
              "type": "initial",
              "maximumWarning": "500kb",
              "maximumError": "2mb"
            },
            {
              "type": "anyComponentStyle",
              "maximumWarning": "2kb",
              "maximumError": "4kb"
            }
          ],
          "outputHashing": "all"
        },
        "development": {
          "buildOptimizer": false,
          "optimization": false,
          "vendorChunk": true,
          "extractLicenses": false,
          "sourceMap": true,
          "namedChunks": true
        }
      },
      "defaultConfiguration": "production",
      "outputs": ["{options.outputPath}"]
    },
    "serve": {
      "executor": "@angular-devkit/build-angular:dev-server",
      "configurations": {
        "production": {
          "browserTarget": "Hausubung_2:build:production"
        },
        "development": {
          "browserTarget": "Hausubung_2:build:development"
        }
      },
      "defaultConfiguration": "development"
    },
    "extract-i18n": {
      "executor": "@angular-devkit/build-angular:extract-i18n",
      "options": {
        "browserTarget": "Hausubung_2:build"
      }
    },
    "test": {
      "executor": "@angular-devkit/build-angular:karma",
      "options": {
        "polyfills": ["zone.js", "zone.js/testing"],
        "tsConfig": "tsconfig.spec.json",
        "inlineStyleLanguage": "scss",
        "assets": ["src/favicon.ico", "src/assets", "src/manifest.webmanifest"],
        "styles": ["src/styles.scss"],
        "scripts": []
      }
    }
  }
}
